[
    {
        "id": 1,
        "name": "Cyndaquil",
        "type": [
            { "name": "Fuego", "strongAgainst": ["Planta"], "weakAgainst": ["Agua"] }
        ],
        "img": "ejemplo"
    },
    {
        "id": 2,
        "name": "Bulbasaur",
        "type": [
            { "name": "Planta", "strongAgainst": ["Agua"], "weakAgainst": ["Fuego"] }
        ],
        "img": "ejemplo2"
    },
    {
        "id": 3,
        "name": "Vaporeon",
        "type": [
            { "name": "Agua", "strongAgainst": ["Fuego"], "weakAgainst": ["Planta"] }
        ],
        "img": "ejemplo2"
    }
]